Biomarkers of ASD
…
    Updated

      October 30, 2022

Abstract

In this report, we will mainly study the impact of preprocessing and outliers and methodlogical variations. In the preprocessing part, we mainly want to apply log transformation on the raw data to get the clean data. Log transformation could help us transform our data from an highly skewed distribution to a normal distribution, also decreasing the range of the data set. By doing so, we could decrease the prediction errors when we are doing the regression model.

To study the impact of outliers, we removed the trimming function and performed exploratory analysis on the outliers. This displayed that the outliers were largely biased towards the ASD group.

In order to find an improved classifier (panel of proteins to predict ASD), we fit a Lasso regression model to the data. This resulted in an alternative panel of 50 proteins with comparable classification accuracy to the in-class analysis of the study.

Dataset

# A tibble: 154 × 1,319
   group  ados  CHIP CEBPB   NSE PIAS4 IL-10…¹ STAT3  IRF1 `c-Jun` `Mcl-1`  OAS1
   <chr> <dbl> <dbl> <dbl> <dbl> <dbl>   <dbl> <dbl> <dbl>   <dbl>   <dbl> <dbl>
 1 ASD       8  619. 1489.  733. 1230.   1647   467  1041    3114.   1248.  490.
 2 ASD      21  512. 1698. 2628. 1484.   1712.  548. 1214.   3188     868.  649.
 3 ASD      12  438. 1122.  857. 1419.   1926.  413. 1222.   2373.   1203   496.
 4 ASD      20  505  1210. 1394  1036.   1552.  523. 1982.   2652.    764.  523 
 5 ASD      22  441. 1120.  885   926.   1518.  524. 1422.   2374.    648.  693.
 6 ASD      17  499. 1822.  658. 1087.   1651.  459  1203.   3050.   2717.  545.
 7 ASD      15  664. 1583.  619. 1162.   1932.  434. 1421    3853.    708.  492.
 8 ASD      10  334.  963.  940   777.   1706.  443. 1143.   2347.    850.  474.
 9 ASD      22  504. 6044. 1821. 2555.   2814.  612. 1203.   7489.   2163. 5234.
10 ASD      17  663. 1215.  700.  929.   1761.  535. 1093.   2703.    914.  465.
# … with 144 more rows, 1,307 more variables: `c-Myc` <dbl>, SMAD3 <dbl>,
#   SMAD2 <dbl>, `IL-23` <dbl>, PDGFRA <dbl>, `IL-12` <dbl>, STAT1 <dbl>,
#   STAT6 <dbl>, LRRK2 <dbl>, Osteocalcin <dbl>, `IL-5` <dbl>, GPDA <dbl>,
#   IgA <dbl>, LPPL <dbl>, HEMK2 <dbl>, PDXK <dbl>, TLR4 <dbl>, REG4 <dbl>,
#   `HSP 27` <dbl>, `YKL-40` <dbl>, `Alpha enolase` <dbl>, `Apo L1` <dbl>,
#   CD38 <dbl>, CD59 <dbl>, FABPL <dbl>, `GDF-11` <dbl>, BTC <dbl>,
#   `HIF-1a` <dbl>, S100A6 <dbl>, SECTM1 <dbl>, RSPO3 <dbl>, PSP <dbl>, …

# A tibble: 154 × 1,319
   group  ados    CHIP  CEBPB     NSE   PIAS4 `IL-10 Ra`   STAT3    IRF1 `c-Jun`
   <chr> <dbl>   <dbl>  <dbl>   <dbl>   <dbl>      <dbl>   <dbl>   <dbl>   <dbl>
 1 ASD       8  0.335   0.520 -0.554   0.650     -0.358   0.305  -0.484    0.309
 2 ASD      21 -0.0715  1.01   3       1.28      -0.133   1.13    0.253    0.408
 3 ASD      12 -0.406  -0.531 -0.0592  1.13       0.554  -0.334   0.287   -0.845
 4 ASD      20 -0.102  -0.251  1.47    0.0773    -0.705   0.893   2.61    -0.372
 5 ASD      22 -0.395  -0.536  0.0410 -0.299     -0.830   0.899   1.01    -0.843
 6 ASD      17 -0.126   1.27  -0.892   0.239     -0.344   0.216   0.211    0.221
 7 ASD      15  0.486   0.748 -1.09    0.462      0.570  -0.0682  1.01     1.21 
 8 ASD      10 -0.990  -1.10   0.231  -0.885     -0.151   0.0307 -0.0346  -0.891
 9 ASD      22 -0.108   3      2.32    3          2.76    1.70    0.209    3    
10 ASD      17  0.485  -0.234 -0.697  -0.286      0.0331  1.01   -0.248   -0.293
# … with 144 more rows, and 1,309 more variables: `Mcl-1` <dbl>, OAS1 <dbl>,
#   `c-Myc` <dbl>, SMAD3 <dbl>, SMAD2 <dbl>, `IL-23` <dbl>, PDGFRA <dbl>,
#   `IL-12` <dbl>, STAT1 <dbl>, STAT6 <dbl>, LRRK2 <dbl>, Osteocalcin <dbl>,
#   `IL-5` <dbl>, GPDA <dbl>, IgA <dbl>, LPPL <dbl>, HEMK2 <dbl>, PDXK <dbl>,
#   TLR4 <dbl>, REG4 <dbl>, `HSP 27` <dbl>, `YKL-40` <dbl>,
#   `Alpha enolase` <dbl>, `Apo L1` <dbl>, CD38 <dbl>, CD59 <dbl>, FABPL <dbl>,
#   `GDF-11` <dbl>, BTC <dbl>, `HIF-1a` <dbl>, S100A6 <dbl>, SECTM1 <dbl>, …
…
